{
  "type": "bubble",
  "body": {
    "type": "box",
    "layout": "vertical",
    "contents": [
      {
        "type": "box",
        "layout": "vertical",
        "contents": [
          {
            "type": "image",
            "url": "https://i.ibb.co/q5Mv3Lm/Laporan-mymoney.png",
            "size": "xxl",
            "aspectMode": "fit"
          }
        ],
        "backgroundColor": "#ebc034",
        "height": "150px"
      },
      {
        "type": "box",
        "layout": "horizontal",
        "contents": [
          {
            "type": "text",
            "text": "Pilih Waktu",
            "size": "xl",
            "color": "#ffa626",
            "weight": "bold",
            "align": "center"
          }
        ]
      },
      {
        "type": "separator",
        "margin": "lg"
      },
      {
        "type": "box",
        "layout": "horizontal",
        "contents": [
          {
            "type": "box",
            "layout": "vertical",
            "contents": [
              {
                "type": "image",
                "url": "https://i.ibb.co/Svrp2Gh/Hari.png",
                "aspectMode": "fit",
                "size": "lg",
                "action": {
                  "type": "message",
                  "text": "Hari",
                  "label": "Hari"
                },
                "margin": "md",
                "offsetBottom": "xs"
              }
            ],
            "flex": 1
          },
          {
            "type": "separator"
          },
          {
            "type": "box",
            "layout": "vertical",
            "contents": [
              {
                "type": "image",
                "size": "lg",
                "action": {
                  "type": "message",
                  "text": "Minggu",
                  "label": "Minggu"
                },
                "margin": "md",
                "offsetBottom": "xs",
                "aspectMode": "fit",
                "url": "https://i.ibb.co/mScPTQ4/Minggui.png"
              }
            ]
          },
          {
            "type": "separator"
          },
          {
            "type": "box",
            "layout": "vertical",
            "contents": [
              {
                "type": "image",
                "url": "https://i.ibb.co/q991p97/Bulan.png",
                "offsetTop": "5px",
                "action": {
                  "type": "message",
                  "label": "Bulan",
                  "text": "Bulan"
                }
              }
            ]
          }
        ],
        "paddingTop": "0px",
        "paddingBottom": "0px"
      },
      {
        "type": "separator"
      },
      {
        "type": "separator"
      }
    ],
    "spacing": "none",
    "paddingBottom": "0px"
  },
  "footer": {
    "type": "box",
    "layout": "vertical",
    "spacing": "none",
    "contents": [
      {
        "type": "button",
        "style": "primary",
        "height": "sm",
        "action": {
          "type": "message",
          "text": "Batal",
          "label": "Batal"
        },
        "color": "#ebc034"
      },
      {
        "type": "spacer",
        "size": "sm"
      }
    ],
    "flex": 0,
    "margin": "none"
  },
  "styles": {
    "hero": {
      "separator": true
    },
    "body": {
      "separator": false
    }
  }
}