{
  "type": "bubble",
  "body": {
    "type": "box",
    "layout": "vertical",
    "contents": [
      {
        "type": "box",
        "layout": "horizontal",
        "contents": [
          {
            "type": "text",
            "text": "Pilih Perintah",
            "size": "xl",
            "color": "#ffffff",
            "weight": "bold",
            "align": "center",
            "margin": "none"
          }
        ]
      },
      {
        "type": "separator",
        "margin": "none",
        "color": "#FFFFFF"
      },
      {
        "type": "box",
        "layout": "horizontal",
        "contents": [
          {
            "type": "image",
            "url": "https://i.ibb.co/bLKzKsQ/Catat-Pendapatan-removebg-preview.png",
            "aspectMode": "fit",
            "size": "4xl",
            "action": {
              "type": "message",
              "text": "Catat Pendapatan",
              "label": "Catat Pendapatan"
            },
            "margin": "none",
            "aspectRatio": "2:1"
          }
        ],
        "spacing": "none",
        "margin": "none"
      },
      {
        "type": "separator",
        "margin": "none",
        "color": "#FFFFFF"
      },
      {
        "type": "box",
        "layout": "horizontal",
        "contents": [
          {
            "type": "image",
            "url": "https://i.ibb.co/MCtfbGD/Catat-Pengeluaran-removebg-preview.png",
            "aspectMode": "fit",
            "size": "4xl",
            "action": {
              "type": "message",
              "text": "Catat Pengeluaran",
              "label": "Catat Pengeluaran"
            },
            "margin": "none",
            "aspectRatio": "2:1"
          }
        ],
        "spacing": "none",
        "margin": "none"
      },
      {
        "type": "separator",
        "margin": "none",
        "color": "#FFFFFF"
      },
      {
        "type": "box",
        "layout": "horizontal",
        "contents": [
          {
            "type": "image",
            "url": "https://i.ibb.co/xH8JbzQ/Laporan-removebg-preview.png",
            "aspectMode": "fit",
            "size": "4xl",
            "action": {
              "type": "message",
              "text": "Laporan",
              "label": "Laporan"
            },
            "margin": "md",
            "aspectRatio": "2:1"
          }
        ],
        "spacing": "none",
        "margin": "none"
      },
      {
        "type": "separator",
        "margin": "none",
        "color": "#FFFFFF"
      },
      {
        "type": "box",
        "layout": "horizontal",
        "contents": [
          {
            "type": "image",
            "url": "https://i.ibb.co/Dg9Ngpr/Kalkulator-Investasi-removebg-preview.png",
            "aspectMode": "fit",
            "size": "4xl",
            "action": {
              "type": "message",
              "text": "Kalkulator Investasi",
              "label": "Kalkulator Investasi"
            },
            "margin": "md",
            "aspectRatio": "2:1"
          }
        ],
        "spacing": "none",
        "margin": "none"
      },
      {
        "type": "separator",
        "margin": "none",
        "color": "#FFFFFF"
      },
      {
        "type": "box",
        "layout": "vertical",
        "contents": [
          {
            "type": "text",
            "text": "- Action Menu -",
            "align": "center",
            "color": "#FFFFFF",
            "size": "xs",
            "margin": "sm"
          },
          {
            "type": "spacer",
            "size": "md"
          }
        ],
        "spacing": "none",
        "margin": "xs"
      }
    ],
    "spacing": "none",
    "paddingBottom": "0px"
  },
  "styles": {
    "hero": {
      "separator": true
    },
    "body": {
      "separator": false,
      "backgroundColor": "#ffa626"
    }
  }
}